STAT155-PROJECT3
…
Model Evaluation

Overall, this model has no extreme outliers, and the data are generally equally distributed.

The R-squared of the model (mod1) is 0.2090, which means that about 20.9% of the residuals are accounted for in the regression model.

Residual value equals the observed value minus the estimated value. As the plots show, there seems to be no systematic error in these plots because the data are normal random distributed patterns in the plots. There is an equal spread of residuals across fitted values and explanatory variables. The dots are equally distributed around the residual lines. The data spreads wider when the body weight is between 100 to 150 kg. The residual standard error of 200.1854 gives us a sense of the typical size of our residuals, which is how far off do our predictions tend to be.

Since the R-squared value for the model to predict total weight lifting is 20.9%, we can explain about 20.9% of the variation in the total weight lifting using this model with three variables. The adjusted R-squared is 0.209. Clearly, body weight, ageclass, and sex explain the minority variation in total weight lifting.

We dont notice a particularly strong pattern in either age class, sex, or body weight. This suggests that there isnt any strong pattern of our model consistently over-or under-estimating total weight lifting for either of these groups. The spread of the residuals seems like it could perhaps be increasing slightly as fitted values. This suggests that more of our predictions are bad, in which the residuals are far from zero, in either direction, as the graph shows.

The residual standard error is the standard deviation of our residuals. The residual has a standard deviation of 200.1854, which means the average difference between the expected residuals from the mean. It turns out that the mean of our residuals will always be zero. So, our residual standard error gives us a sense of how tightly concentrated all of our residuals are around zero, which tells us how tightly concentrated our predictions are around the true values. This residual standard error is very large. A useful rule of thumb tells us that if our data are normally distributed, 95% of observations will fall within two standard deviations of the mean. Applying this rule to our residual standard error, we can say that our model predicts total weight lifting for most lifters within 400.37 kg.

## # A tibble: 537,104 x 10
##    TotalKg BodyweightKg Sex   AgeClass .fitted .resid      .hat .sigma   .cooksd
##      <dbl>        <dbl> <chr> <chr>      <dbl>  <dbl>     <dbl>  <dbl>     <dbl>
##  1   290           59.8 F     24-34       271.   18.8 0.0000100   200.   1.26e-8
##  2   332.          58.5 F     24-34       268.   64.7 0.0000101   200.   1.51e-7
##  3    32.5         55.4 F     40-44       188. -156.  0.0000235   200.   2.03e-6
##  4   310           60   F     20-23       288.   21.7 0.0000133   200.   2.25e-8
##  5   370           74   F     35-39       264.  106.  0.0000213   200.   8.53e-7
##  6   345           59.8 F     20-23       288.   57.3 0.0000133   200.   1.56e-7
##  7   370           80.4 F     35-39       281.   89.1 0.0000216   200.   6.10e-7
##  8   520          108   F     35-39       353.  167.  0.0000270   200.   2.67e-6
##  9   475           74.8 F     35-39       266.  209.  0.0000213   200.   3.32e-6
## 10   462.          82   F     24-34       329.  133.  0.0000104   200.   6.55e-7
## # ... with 537,094 more rows, and 1 more variable: .std.resid <dbl>
…
